<svg width="24" height="24" viewBox="0 0 24 24" fill="none" xmlns="http://www.w3.org/2000/svg">
<path fill-rule="evenodd" clip-rule="evenodd" d="M19.6523 1.00016L17.0001 1C17.5523 1.00007 18 1.44776 18 2V3H19.67C20.3321 2.98845 20.8867 3.44753 21 4.07677V10.9232C20.8867 11.5525 20.3326 12.0116 19.6877 12.0002L18 12.0001V13C18 13.1399 17.9706 13.2783 17.9138 13.4061L17.6499 14H17C16.4477 14 16 13.5523 16 13L16 12.7878L12.3919 20.9059C11.5847 20.6486 11 19.8926 11 19V15C11 14.4477 10.5523 14 9.99998 14H4.33998C4.03528 14.0034 3.75525 13.8777 3.56273 13.6563C3.37021 13.4349 3.28463 13.1401 3.32866 12.8501L4.70843 3.85156C4.78345 3.3569 5.21004 2.9943 5.70868 2.99994L16 3L16 2C16 1.44772 16.4477 1 17 1H5.71998C4.23536 0.983155 2.9556 2.07095 2.73129 3.55007L1.35154 12.5484C1.21922 13.4202 1.47596 14.3045 2.05352 14.9687C2.63108 15.6329 3.47118 16.0099 4.35131 15.9999L8.99998 16V19C8.99998 21.2091 10.7908 23 13 23C13.3952 23 13.7533 22.7673 13.9138 22.4061L17.6499 14H19.67C21.3309 14.0295 22.7659 12.7978 22.991 11.134L23 11V4L22.991 3.86596C22.7659 2.20222 21.3309 0.970472 19.6523 1.00016Z" fill="black"/>
<mask id="mask0" mask-type="alpha" maskUnits="userSpaceOnUse" x="1" y="0" width="22" height="23">
<path fill-rule="evenodd" clip-rule="evenodd" d="M19.6523 1.00016L17.0001 1C17.5523 1.00007 18 1.44776 18 2V3H19.67C20.3321 2.98845 20.8867 3.44753 21 4.07677V10.9232C20.8867 11.5525 20.3326 12.0116 19.6877 12.0002L18 12.0001V13C18 13.1399 17.9706 13.2783 17.9138 13.4061L17.6499 14H17C16.4477 14 16 13.5523 16 13L16 12.7878L12.3919 20.9059C11.5847 20.6486 11 19.8926 11 19V15C11 14.4477 10.5523 14 9.99998 14H4.33998C4.03528 14.0034 3.75525 13.8777 3.56273 13.6563C3.37021 13.4349 3.28463 13.1401 3.32866 12.8501L4.70843 3.85156C4.78345 3.3569 5.21004 2.9943 5.70868 2.99994L16 3L16 2C16 1.44772 16.4477 1 17 1H5.71998C4.23536 0.983155 2.9556 2.07095 2.73129 3.55007L1.35154 12.5484C1.21922 13.4202 1.47596 14.3045 2.05352 14.9687C2.63108 15.6329 3.47118 16.0099 4.35131 15.9999L8.99998 16V19C8.99998 21.2091 10.7908 23 13 23C13.3952 23 13.7533 22.7673 13.9138 22.4061L17.6499 14H19.67C21.3309 14.0295 22.7659 12.7978 22.991 11.134L23 11V4L22.991 3.86596C22.7659 2.20222 21.3309 0.970472 19.6523 1.00016Z" fill="white"/>
</mask>
<g mask="url(#mask0)">
<rect width="24" height="24" fill="black"/>
</g>
</svg>
